mips_cpu_bus_tb.vcd
$date
	Wed Dec 15 00:33:20 2021
$end
$version
	Icarus Verilog
$end
$timescale
	1s
$end
$scope module mips_cpu_bus_tb $end
$var wire 32 ! writedata [31:0] $end
$var wire 1 " write $end
$var wire 32 # register_v0 [31:0] $end
$var wire 32 $ readdata [31:0] $end
$var wire 1 % read $end
$var wire 4 & byteenable [3:0] $end
$var wire 32 ' address [31:0] $end
$var wire 1 ( active $end
$var reg 1 ) clk $end
$var reg 1 * initialwrite $end
$var reg 1 + reset $end
$var reg 1 , waitrequest $end
$var reg 2 - waitrequest_counter [1:0] $end
$scope module cpu $end
$var wire 32 . AluA [31:0] $end
$var wire 1 ) clk $end
$var wire 1 / divStart $end
$var wire 1 + reset $end
$var wire 1 , waitrequest $end
$var wire 32 0 writedata [31:0] $end
$var wire 1 " write $end
$var wire 32 1 register_v0 [31:0] $end
$var wire 32 2 registerReadB [31:0] $end
$var wire 32 3 registerReadA [31:0] $end
$var wire 16 4 regHalf [15:0] $end
$var wire 8 5 regByte [7:0] $end
$var wire 32 6 regBLSH [31:0] $end
$var wire 32 7 regBLSB [31:0] $end
$var wire 32 8 readdata [31:0] $end
$var wire 1 % read $end
$var wire 32 9 progNext [31:0] $end
$var wire 1 : multSign $end
$var wire 64 ; multOut [63:0] $end
$var wire 1 < moduleReset $end
$var wire 5 = instrS2 [4:0] $end
$var wire 6 > instrOp [5:0] $end
$var wire 16 ? instrImmI [15:0] $end
$var wire 6 @ instrFn [5:0] $end
$var wire 5 A instrD [4:0] $end
$var wire 26 B instrAddrJ [25:0] $end
$var wire 1 C divSign $end
$var wire 32 D divRemainder [31:0] $end
$var wire 32 E divQuotient [31:0] $end
$var wire 1 F divDone $end
$var wire 1 G divDBZ $end
$var wire 4 H bytemappingLWR [3:0] $end
$var wire 4 I bytemappingLWL [3:0] $end
$var wire 4 J bytemappingH [3:0] $end
$var wire 4 K bytemappingB [3:0] $end
$var wire 4 L byteenable [3:0] $end
$var wire 32 M addressTemp [31:0] $end
$var wire 32 N address [31:0] $end
$var wire 1 O AluZero $end
$var wire 32 P AluOut [31:0] $end
$var wire 32 Q AluB [31:0] $end
$var reg 4 R AluControl [3:0] $end
$var reg 1 ( active $end
$var reg 2 S branch [1:0] $end
$var reg 32 T exImm [31:0] $end
$var reg 32 U instruction [31:0] $end
$var reg 32 V progCount [31:0] $end
$var reg 32 W progTemp [31:0] $end
$var reg 5 X registerAddressA [4:0] $end
$var reg 5 Y registerAddressB [4:0] $end
$var reg 32 Z registerDataIn [31:0] $end
$var reg 32 [ registerHi [31:0] $end
$var reg 32 \ registerLo [31:0] $end
$var reg 5 ] registerWriteAddress [4:0] $end
$var reg 1 ^ registerWriteEnable $end
$var reg 5 _ shiftAmount [4:0] $end
$var reg 3 ` state [2:0] $end
$var reg 32 a zeImm [31:0] $end
$scope module ALU0 $end
$var wire 32 b a [31:0] $end
$var wire 32 c b [31:0] $end
$var wire 1 ) clk $end
$var wire 4 d control [3:0] $end
$var wire 1 < reset $end
$var wire 5 e sa [4:0] $end
$var wire 1 O zero $end
$var wire 5 f saVar [4:0] $end
$var wire 16 g lower [15:0] $end
$var reg 32 h r [31:0] $end
$upscope $end
$scope module DIV0 $end
$var wire 1 ) clk $end
$var wire 1 < reset $end
$var wire 1 C sign $end
$var wire 1 / start $end
$var wire 32 i remainderOut [31:0] $end
$var wire 32 j quotientOut [31:0] $end
$var wire 1 F done $end
$var wire 32 k divisor [31:0] $end
$var wire 32 l dividend [31:0] $end
$var wire 1 G dbz $end
$var reg 32 m dividendIn [31:0] $end
$var reg 32 n divisorIn [31:0] $end
$var reg 32 o quotient [31:0] $end
$var reg 32 p remainder [31:0] $end
$scope module div0 $end
$var wire 1 ) clk $end
$var wire 32 q dividend [31:0] $end
$var wire 32 r divisor [31:0] $end
$var wire 1 < reset $end
$var wire 1 / start $end
$var reg 32 s ac [31:0] $end
$var reg 32 t ac_next [31:0] $end
$var reg 1 G dbz $end
$var reg 1 F done $end
$var reg 6 u i [5:0] $end
$var reg 32 v q1 [31:0] $end
$var reg 32 w q1_next [31:0] $end
$var reg 32 x quotient [31:0] $end
$var reg 32 y remainder [31:0] $end
$var reg 32 z y [31:0] $end
$upscope $end
$upscope $end
$scope module MULT0 $end
$var wire 1 ) clk $end
$var wire 1 < reset $end
$var wire 1 : sign $end
$var wire 32 { b [31:0] $end
$var wire 32 | a [31:0] $end
$var reg 64 } r [63:0] $end
$upscope $end
$scope module REGS0 $end
$var wire 1 ) clk $end
$var wire 32 ~ dataIn [31:0] $end
$var wire 5 !" readAddressA [4:0] $end
$var wire 5 "" readAddressB [4:0] $end
$var wire 1 < reset $end
$var wire 5 #" writeAddress [4:0] $end
$var wire 1 ^ writeEnable $end
$var wire 32 $" register_v0 [31:0] $end
$var wire 32 %" readDataB [31:0] $end
$var wire 32 &" readDataA [31:0] $end
$var integer 32 '" i [31:0] $end
$upscope $end
$upscope $end
$scope module mem $end
$var wire 32 (" addr [31:0] $end
$var wire 4 )" byteenable [3:0] $end
$var wire 1 ) clk $end
$var wire 1 % read $end
$var wire 1 , waitrequest $end
$var wire 1 " write $end
$var wire 32 *" writedata [31:0] $end
$var reg 1 +" dontread $end
$var reg 32 ," readdata [31:0] $end
$var reg 11 -" tempaddress [10:0] $end
$scope begin $unm_blk_1 $end
$var integer 32 ." i [31:0] $end
$upscope $end
$upscope $end
$upscope $end
$enddefinitions $end
#0
$dumpvars
b100000000000 ."
bx -"
bx ,"
0+"
bx *"
bx )"
bx00 ("
bx '"
bx &"
bx %"
bx $"
bx #"
bx ""
bx !"
bx ~
bx }
bx |
bx {
bx z
bx y
bx x
bx w
bx v
bx u
bx t
bx s
bx r
bx q
bx p
bx o
bx n
bx m
bx l
bx k
bx j
bx i
bx h
bx g
bx f
bx e
bx d
bx c
bx b
bx a
bx `
bx _
x^
bx ]
bx \
bx [
bx Z
bx Y
bx X
bx W
bx V
bx U
bx T
bx S
bx R
bx Q
bx P
xO
bx00 N
bx M
bx L
bx K
bx J
bx I
bx H
xG
xF
bx E
bx D
xC
bx B
bx A
bx @
bx ?
bx >
bx =
0<
bx ;
x:
bx 9
bx 8
bx 7
bx 6
bx 5
bx 4
bx 3
bx 2
bx 1
bx 0
x/
bx .
b0 -
0,
0+
1*
0)
x(
bx00 '
bx &
x%
bx $
bx #
x"
bx !
$end
#15
b0 !
b0 0
b0 *"
b0 f
b0 6
b0 7
b0 4
b0 5
b0 n
b0 r
b0 m
b0 q
b0 #
b0 1
b0 $"
b0 .
b0 b
b0 3
b0 l
b0 |
b0 &"
b0 2
b0 k
b0 {
b0 %"
1<
1+
1)
#25
0)
#35
bx f
bx !
bx 0
bx *"
bx 6
bx 7
bx 4
bx 5
bx n
bx r
bx m
bx q
bx .
bx b
bx 3
bx l
bx |
bx &"
bx 2
bx k
bx {
bx %"
0"
1%
b1 K
b1111 I
b1 H
b11 J
0<
0/
1O
b10111111110000000000000000000000 '
b10111111110000000000000000000000 N
b10111111110000000000000000000000 ("
b1111 &
b1111 L
b1111 )"
b0 D
b0 p
b0 E
b0 o
b10111111110000000000000000000000 M
0+
b0 `
1(
b0 Z
b0 ~
b0 S
b0 [
b0 W
b10111111110000000000000000000100 9
b10111111110000000000000000000000 V
0G
0F
b0 i
b0 y
b0 j
b0 x
b0 ;
b0 }
b0 P
b0 h
b100000 '"
1)
#45
0)
#55
0%
b0 '
b0 N
b0 ("
b0 M
b0 &
b0 L
b0 )"
0^
b1 `
b0 -"
bx ;
bx }
1)
#65
0)
#75
x/
b10 `
b0xxxxxxxxxxxxxxxx a
1)
#85
0)
#95
x%
bx &
bx L
bx )"
x"
0/
b11 `
1)
#105
0)
#115
0%
b0 &
b0 L
b0 )"
0"
b100 `
1)
#125
0)
#135
1%
b10111111110000000000000000000100 '
b10111111110000000000000000000100 N
b10111111110000000000000000000100 ("
b10111111110000000000000000000100 M
b1111 &
b1111 L
b1111 )"
b0 `
b10111111110000000000000000001000 9
b10111111110000000000000000000100 V
bx Z
bx ~
x^
1)
#145
0)
#155
0%
b0 '
b0 N
b0 ("
b0 M
b0 &
b0 L
b0 )"
b0 $
b0 8
b0 ,"
b100 -"
0^
b1 `
1)
#165
0)
#175
b0 g
b0 Q
b0 c
b0 f
0:
0C
b0 6
b0 7
b0 4
b0 5
b0 n
b0 r
b0 m
b0 q
b0 !
b0 0
b0 *"
b0 2
b0 k
b0 {
b0 %"
b0 .
b0 b
b0 3
b0 l
b0 |
b0 &"
b0 >
b0 =
b0 A
b0 ?
b0 @
b0 B
b10 `
b1000 R
b1000 d
b0 _
b0 e
b0 a
b0 T
b0 Y
b0 ""
b0 X
b0 !"
b0 U
bx $
bx 8
bx ,"
1)
#185
0)
#195
b11 `
b0 ;
b0 }
1)
#205
0)
#215
b100 `
1)
#225
0)
#235
1%
b10111111110000000000000000001000 '
b10111111110000000000000000001000 N
b10111111110000000000000000001000 ("
b10111111110000000000000000001000 M
b1111 &
b1111 L
b1111 )"
b0 `
b10111111110000000000000000001100 9
b10111111110000000000000000001000 V
b0 Z
b0 ~
b0 ]
b0 #"
1^
1)
#245
0)
#255
0%
b0 '
b0 N
b0 ("
b0 M
b0 &
b0 L
b0 )"
0^
b1 `
b0 $
b0 8
b0 ,"
b1000 -"
1)
#265
0)
#275
bx $
bx 8
bx ,"
b10 `
1)
#285
0)
#295
b11 `
1)
#305
0)
#315
b100 `
1)
#325
0)
#335
1%
b10111111110000000000000000001100 '
b10111111110000000000000000001100 N
b10111111110000000000000000001100 ("
b10111111110000000000000000001100 M
b1111 &
b1111 L
b1111 )"
b0 `
b10111111110000000000000000010000 9
b10111111110000000000000000001100 V
1^
1)
#345
0)
#355
0%
b0 '
b0 N
b0 ("
b0 M
b0 &
b0 L
b0 )"
b0 $
b0 8
b0 ,"
b1100 -"
0^
b1 `
1)
#365
0)
#375
b10 `
bx $
bx 8
bx ,"
1)
#385
0)
#395
b11 `
1)
#405
0)
#415
b100 `
1)
#425
0)
#435
1%
b10111111110000000000000000010000 '
b10111111110000000000000000010000 N
b10111111110000000000000000010000 ("
b10111111110000000000000000010000 M
b1111 &
b1111 L
b1111 )"
b0 `
b10111111110000000000000000010100 9
b10111111110000000000000000010000 V
1^
1)
#445
0)
#455
0%
b0 '
b0 N
b0 ("
b0 M
b0 &
b0 L
b0 )"
0^
b1 `
b0 $
b0 8
b0 ,"
b10000 -"
1)
#465
0)
#475
bx $
bx 8
bx ,"
b10 `
1)
#485
0)
#495
b11 `
1)
#505
0)
#515
b100 `
1)
#525
0)
#535
1%
b10111111110000000000000000010100 '
b10111111110000000000000000010100 N
b10111111110000000000000000010100 ("
b10111111110000000000000000010100 M
b1111 &
b1111 L
b1111 )"
b0 `
b10111111110000000000000000011000 9
b10111111110000000000000000010100 V
1^
1)
#545
0)
#555
0%
b0 '
b0 N
b0 ("
b0 M
b0 &
b0 L
b0 )"
b0 $
b0 8
b0 ,"
b10100 -"
0^
b1 `
1)
#565
0)
#575
b10 `
bx $
bx 8
bx ,"
1)
#585
0)
#595
b11 `
1)
#605
0)
#615
b100 `
1)
#625
0)
#635
1%
b10111111110000000000000000011000 '
b10111111110000000000000000011000 N
b10111111110000000000000000011000 ("
b10111111110000000000000000011000 M
b1111 &
b1111 L
b1111 )"
b0 `
b10111111110000000000000000011100 9
b10111111110000000000000000011000 V
1^
1)
#645
0)
#655
0%
b0 '
b0 N
b0 ("
b0 M
b0 &
b0 L
b0 )"
0^
b1 `
b0 $
b0 8
b0 ,"
b11000 -"
1)
#665
0)
#675
bx $
bx 8
bx ,"
b10 `
1)
#685
0)
#695
b11 `
1)
#705
0)
#715
b100 `
1)
#725
0)
#735
1%
b10111111110000000000000000011100 '
b10111111110000000000000000011100 N
b10111111110000000000000000011100 ("
b10111111110000000000000000011100 M
b1111 &
b1111 L
b1111 )"
b0 `
b10111111110000000000000000100000 9
b10111111110000000000000000011100 V
1^
1)
#745
0)
#755
0%
b0 '
b0 N
b0 ("
b0 M
b0 &
b0 L
b0 )"
b0 $
b0 8
b0 ,"
b11100 -"
0^
b1 `
1)
#765
0)
#775
b10 `
bx $
bx 8
bx ,"
1)
#785
0)
#795
b11 `
1)
#805
0)
#815
b100 `
1)
#825
0)
#835
1%
b10111111110000000000000000100000 '
b10111111110000000000000000100000 N
b10111111110000000000000000100000 ("
b10111111110000000000000000100000 M
b1111 &
b1111 L
b1111 )"
b0 `
b10111111110000000000000000100100 9
b10111111110000000000000000100000 V
1^
1)
#845
0)
#855
0%
b0 '
b0 N
b0 ("
b0 M
b0 &
b0 L
b0 )"
0^
b1 `
b0 $
b0 8
b0 ,"
b100000 -"
1)
#865
0)
#875
bx $
bx 8
bx ,"
b10 `
1)
#885
0)
#895
b11 `
1)
#905
0)
#915
b100 `
1)
#925
0)
#935
1%
b10111111110000000000000000100100 '
b10111111110000000000000000100100 N
b10111111110000000000000000100100 ("
b10111111110000000000000000100100 M
b1111 &
b1111 L
b1111 )"
b0 `
b10111111110000000000000000101000 9
b10111111110000000000000000100100 V
1^
1)
#945
0)
#955
0%
b0 '
b0 N
b0 ("
b0 M
b0 &
b0 L
b0 )"
b0 $
b0 8
b0 ,"
b100100 -"
0^
b1 `
1)
#965
0)
#975
b10 `
bx $
bx 8
bx ,"
1)
#985
0)
#995
b11 `
1)
#1005
0)
#1015
b100 `
1)
#1025
0)
#1035
1%
b10111111110000000000000000101000 '
b10111111110000000000000000101000 N
b10111111110000000000000000101000 ("
b10111111110000000000000000101000 M
b1111 &
b1111 L
b1111 )"
b0 `
b10111111110000000000000000101100 9
b10111111110000000000000000101000 V
1^
1)
#1045
0)
#1055
0%
b0 '
b0 N
b0 ("
b0 M
b0 &
b0 L
b0 )"
0^
b1 `
b0 $
b0 8
b0 ,"
b101000 -"
1)
#1065
0)
#1075
bx $
bx 8
bx ,"
b10 `
1)
#1085
0)
#1095
b11 `
1)
#1105
0)
#1115
b100 `
1)
#1125
0)
#1135
1%
b10111111110000000000000000101100 '
b10111111110000000000000000101100 N
b10111111110000000000000000101100 ("
b10111111110000000000000000101100 M
b1111 &
b1111 L
b1111 )"
b0 `
b10111111110000000000000000110000 9
b10111111110000000000000000101100 V
1^
1)
#1145
0)
#1155
0%
b0 '
b0 N
b0 ("
b0 M
b0 &
b0 L
b0 )"
b0 $
b0 8
b0 ,"
b101100 -"
0^
b1 `
1)
#1165
0)
#1175
b10 `
bx $
bx 8
bx ,"
1)
#1185
0)
#1195
b11 `
1)
#1205
0)
#1215
b100 `
1)
#1225
0)
#1235
1%
b10111111110000000000000000110000 '
b10111111110000000000000000110000 N
b10111111110000000000000000110000 ("
b10111111110000000000000000110000 M
b1111 &
b1111 L
b1111 )"
b0 `
b10111111110000000000000000110100 9
b10111111110000000000000000110000 V
1^
1)
#1245
0)
#1255
0%
b0 '
b0 N
b0 ("
b0 M
b0 &
b0 L
b0 )"
0^
b1 `
b0 $
b0 8
b0 ,"
b110000 -"
1)
#1265
0)
#1275
bx $
bx 8
bx ,"
b10 `
1)
#1285
0)
#1295
b11 `
1)
#1305
0)
#1315
b100 `
1)
#1325
0)
#1335
1%
b10111111110000000000000000110100 '
b10111111110000000000000000110100 N
b10111111110000000000000000110100 ("
b10111111110000000000000000110100 M
b1111 &
b1111 L
b1111 )"
b0 `
b10111111110000000000000000111000 9
b10111111110000000000000000110100 V
1^
1)
#1345
0)
#1355
0%
b0 '
b0 N
b0 ("
b0 M
b0 &
b0 L
b0 )"
b0 $
b0 8
b0 ,"
b110100 -"
0^
b1 `
1)
#1365
0)
#1375
b10 `
bx $
bx 8
bx ,"
1)
#1385
0)
#1395
b11 `
1)
#1405
0)
#1415
b100 `
1)
#1425
0)
#1435
1%
b10111111110000000000000000111000 '
b10111111110000000000000000111000 N
b10111111110000000000000000111000 ("
b10111111110000000000000000111000 M
b1111 &
b1111 L
b1111 )"
b0 `
b10111111110000000000000000111100 9
b10111111110000000000000000111000 V
1^
1)
#1445
0)
#1455
0%
b0 '
b0 N
b0 ("
b0 M
b0 &
b0 L
b0 )"
0^
b1 `
b0 $
b0 8
b0 ,"
b111000 -"
1)
#1465
0)
#1475
bx $
bx 8
bx ,"
b10 `
1)
#1485
0)
#1495
b11 `
1)
#1505
0)
#1515
b100 `
1)
#1525
0)
#1535
1%
b10111111110000000000000000111100 '
b10111111110000000000000000111100 N
b10111111110000000000000000111100 ("
b10111111110000000000000000111100 M
b1111 &
b1111 L
b1111 )"
b0 `
b10111111110000000000000001000000 9
b10111111110000000000000000111100 V
1^
1)
#1545
0)
#1555
0%
b0 '
b0 N
b0 ("
b0 M
b0 &
b0 L
b0 )"
b0 $
b0 8
b0 ,"
b111100 -"
0^
b1 `
1)
#1565
0)
#1575
b10 `
bx $
bx 8
bx ,"
1)
#1585
0)
#1595
b11 `
1)
#1605
0)
#1615
b100 `
1)
#1625
0)
#1635
1%
b10111111110000000000000001000000 '
b10111111110000000000000001000000 N
b10111111110000000000000001000000 ("
b10111111110000000000000001000000 M
b1111 &
b1111 L
b1111 )"
b0 `
b10111111110000000000000001000100 9
b10111111110000000000000001000000 V
1^
1)
#1645
0)
#1655
0%
b0 '
b0 N
b0 ("
b0 M
b0 &
b0 L
b0 )"
0^
b1 `
b0 $
b0 8
b0 ,"
b1000000 -"
1)
#1665
0)
#1675
bx $
bx 8
bx ,"
b10 `
1)
#1685
0)
#1695
b11 `
1)
#1705
0)
#1715
b100 `
1)
#1725
0)
#1735
1%
b10111111110000000000000001000100 '
b10111111110000000000000001000100 N
b10111111110000000000000001000100 ("
b10111111110000000000000001000100 M
b1111 &
b1111 L
b1111 )"
b0 `
b10111111110000000000000001001000 9
b10111111110000000000000001000100 V
1^
1)
#1745
0)
#1755
0%
b0 '
b0 N
b0 ("
b0 M
b0 &
b0 L
b0 )"
b0 $
b0 8
b0 ,"
b1000100 -"
0^
b1 `
1)
#1765
0)
#1775
b10 `
bx $
bx 8
bx ,"
1)
#1785
0)
#1795
b11 `
1)
#1805
0)
#1815
b100 `
1)
#1825
0)
#1835
1%
b10111111110000000000000001001000 '
b10111111110000000000000001001000 N
b10111111110000000000000001001000 ("
b10111111110000000000000001001000 M
b1111 &
b1111 L
b1111 )"
b0 `
b10111111110000000000000001001100 9
b10111111110000000000000001001000 V
1^
1)
#1845
0)
#1855
0%
b0 '
b0 N
b0 ("
b0 M
b0 &
b0 L
b0 )"
0^
b1 `
b0 $
b0 8
b0 ,"
b1001000 -"
1)
#1865
0)
#1875
bx $
bx 8
bx ,"
b10 `
1)
#1885
0)
#1895
b11 `
1)
#1905
0)
#1915
b100 `
1)
#1925
0)
#1935
1%
b10111111110000000000000001001100 '
b10111111110000000000000001001100 N
b10111111110000000000000001001100 ("
b10111111110000000000000001001100 M
b1111 &
b1111 L
b1111 )"
b0 `
b10111111110000000000000001010000 9
b10111111110000000000000001001100 V
1^
1)
#1945
0)
#1955
0%
b0 '
b0 N
b0 ("
b0 M
b0 &
b0 L
b0 )"
b0 $
b0 8
b0 ,"
b1001100 -"
0^
b1 `
1)
#1965
0)
#1975
b10 `
bx $
bx 8
bx ,"
1)
#1985
0)
#1995
b11 `
1)
#2005
0)
#2015
b100 `
1)
#2025
0)
#2035
1%
b10111111110000000000000001010000 '
b10111111110000000000000001010000 N
b10111111110000000000000001010000 ("
b10111111110000000000000001010000 M
b1111 &
b1111 L
b1111 )"
b0 `
b10111111110000000000000001010100 9
b10111111110000000000000001010000 V
1^
1)
#2045
0)
#2055
0%
b0 '
b0 N
b0 ("
b0 M
b0 &
b0 L
b0 )"
0^
b1 `
b0 $
b0 8
b0 ,"
b1010000 -"
1)
#2065
0)
#2075
bx $
bx 8
bx ,"
b10 `
1)
#2085
0)
#2095
b11 `
1)
#2105
0)
#2115
b100 `
1)
#2125
0)
#2135
1%
b10111111110000000000000001010100 '
b10111111110000000000000001010100 N
b10111111110000000000000001010100 ("
b10111111110000000000000001010100 M
b1111 &
b1111 L
b1111 )"
b0 `
b10111111110000000000000001011000 9
b10111111110000000000000001010100 V
1^
1)
#2145
0)
#2155
0%
b0 '
b0 N
b0 ("
b0 M
b0 &
b0 L
b0 )"
b0 $
b0 8
b0 ,"
b1010100 -"
0^
b1 `
1)
#2165
0)
#2175
b10 `
bx $
bx 8
bx ,"
1)
#2185
0)
#2195
b11 `
1)
#2205
0)
#2215
b100 `
1)
#2225
0)
#2235
1%
b10111111110000000000000001011000 '
b10111111110000000000000001011000 N
b10111111110000000000000001011000 ("
b10111111110000000000000001011000 M
b1111 &
b1111 L
b1111 )"
b0 `
b10111111110000000000000001011100 9
b10111111110000000000000001011000 V
1^
1)
#2245
0)
#2255
0%
b0 '
b0 N
b0 ("
b0 M
b0 &
b0 L
b0 )"
0^
b1 `
b0 $
b0 8
b0 ,"
b1011000 -"
1)
#2265
0)
#2275
bx $
bx 8
bx ,"
b10 `
1)
#2285
0)
#2295
b11 `
1)
#2305
0)
#2315
b100 `
1)
#2325
0)
#2335
1%
b10111111110000000000000001011100 '
b10111111110000000000000001011100 N
b10111111110000000000000001011100 ("
b10111111110000000000000001011100 M
b1111 &
b1111 L
b1111 )"
b0 `
b10111111110000000000000001100000 9
b10111111110000000000000001011100 V
1^
1)
#2345
0)
#2355
0%
b0 '
b0 N
b0 ("
b0 M
b0 &
b0 L
b0 )"
b0 $
b0 8
b0 ,"
b1011100 -"
0^
b1 `
1)
#2365
0)
#2375
b10 `
bx $
bx 8
bx ,"
1)
#2385
0)
#2395
b11 `
1)
#2405
0)
#2415
b100 `
1)
#2425
0)
#2435
1%
b10111111110000000000000001100000 '
b10111111110000000000000001100000 N
b10111111110000000000000001100000 ("
b10111111110000000000000001100000 M
b1111 &
b1111 L
b1111 )"
b0 `
b10111111110000000000000001100100 9
b10111111110000000000000001100000 V
1^
1)
#2445
0)
#2455
0%
b0 '
b0 N
b0 ("
b0 M
b0 &
b0 L
b0 )"
0^
b1 `
b0 $
b0 8
b0 ,"
b1100000 -"
1)
#2465
0)
#2475
bx $
bx 8
bx ,"
b10 `
1)
#2485
0)
#2495
b11 `
1)
#2505
0)
#2515
b100 `
1)
#2525
0)
#2535
1%
b10111111110000000000000001100100 '
b10111111110000000000000001100100 N
b10111111110000000000000001100100 ("
b10111111110000000000000001100100 M
b1111 &
b1111 L
b1111 )"
b0 `
b10111111110000000000000001101000 9
b10111111110000000000000001100100 V
1^
1)
#2545
0)
#2555
0%
b0 '
b0 N
b0 ("
b0 M
b0 &
b0 L
b0 )"
b0 $
b0 8
b0 ,"
b1100100 -"
0^
b1 `
1)
#2565
0)
#2575
b10 `
bx $
bx 8
bx ,"
1)
#2585
0)
#2595
b11 `
1)
#2605
0)
#2615
b100 `
1)
#2625
0)
#2635
1%
b10111111110000000000000001101000 '
b10111111110000000000000001101000 N
b10111111110000000000000001101000 ("
b10111111110000000000000001101000 M
b1111 &
b1111 L
b1111 )"
b0 `
b10111111110000000000000001101100 9
b10111111110000000000000001101000 V
1^
1)
#2645
0)
#2655
0%
b0 '
b0 N
b0 ("
b0 M
b0 &
b0 L
b0 )"
0^
b1 `
b0 $
b0 8
b0 ,"
b1101000 -"
1)
#2665
0)
#2675
bx $
bx 8
bx ,"
b10 `
1)
#2685
0)
#2695
b11 `
1)
#2705
0)
#2715
b100 `
1)
#2725
0)
#2735
1%
b10111111110000000000000001101100 '
b10111111110000000000000001101100 N
b10111111110000000000000001101100 ("
b10111111110000000000000001101100 M
b1111 &
b1111 L
b1111 )"
b0 `
b10111111110000000000000001110000 9
b10111111110000000000000001101100 V
1^
1)
#2745
0)
#2755
0%
b0 '
b0 N
b0 ("
b0 M
b0 &
b0 L
b0 )"
b0 $
b0 8
b0 ,"
b1101100 -"
0^
b1 `
1)
#2765
0)
#2775
b10 `
bx $
bx 8
bx ,"
1)
#2785
0)
#2795
b11 `
1)
#2805
0)
#2815
b100 `
1)
#2825
0)
#2835
1%
b10111111110000000000000001110000 '
b10111111110000000000000001110000 N
b10111111110000000000000001110000 ("
b10111111110000000000000001110000 M
b1111 &
b1111 L
b1111 )"
b0 `
b10111111110000000000000001110100 9
b10111111110000000000000001110000 V
1^
1)
#2845
0)
#2855
0%
b0 '
b0 N
b0 ("
b0 M
b0 &
b0 L
b0 )"
0^
b1 `
b0 $
b0 8
b0 ,"
b1110000 -"
1)
#2865
0)
#2875
bx $
bx 8
bx ,"
b10 `
1)
#2885
0)
#2895
b11 `
1)
#2905
0)
#2915
b100 `
1)
#2925
0)
#2935
1%
b10111111110000000000000001110100 '
b10111111110000000000000001110100 N
b10111111110000000000000001110100 ("
b10111111110000000000000001110100 M
b1111 &
b1111 L
b1111 )"
b0 `
b10111111110000000000000001111000 9
b10111111110000000000000001110100 V
1^
1)
#2945
0)
#2955
0%
b0 '
b0 N
b0 ("
b0 M
b0 &
b0 L
b0 )"
b0 $
b0 8
b0 ,"
b1110100 -"
0^
b1 `
1)
#2965
0)
#2975
b10 `
bx $
bx 8
bx ,"
1)
#2985
0)
#2995
b11 `
1)
#3005
0)
#3015
b100 `
1)
#3025
0)
#3035
1%
b10111111110000000000000001111000 '
b10111111110000000000000001111000 N
b10111111110000000000000001111000 ("
b10111111110000000000000001111000 M
b1111 &
b1111 L
b1111 )"
b0 `
b10111111110000000000000001111100 9
b10111111110000000000000001111000 V
1^
1)
#3045
0)
#3055
0%
b0 '
b0 N
b0 ("
b0 M
b0 &
b0 L
b0 )"
0^
b1 `
b0 $
b0 8
b0 ,"
b1111000 -"
1)
#3065
0)
#3075
bx $
bx 8
bx ,"
b10 `
1)
#3085
0)
#3095
b11 `
1)
#3105
0)
#3115
b100 `
1)
#3125
0)
#3135
1%
b10111111110000000000000001111100 '
b10111111110000000000000001111100 N
b10111111110000000000000001111100 ("
b10111111110000000000000001111100 M
b1111 &
b1111 L
b1111 )"
b0 `
b10111111110000000000000010000000 9
b10111111110000000000000001111100 V
1^
1)
#3145
0)
#3155
0%
b0 '
b0 N
b0 ("
b0 M
b0 &
b0 L
b0 )"
b0 $
b0 8
b0 ,"
b1111100 -"
0^
b1 `
1)
#3165
0)
#3175
b10 `
bx $
bx 8
bx ,"
1)
#3185
0)
#3195
b11 `
1)
#3205
0)
#3215
b100 `
1)
#3225
0)
#3235
1%
b10111111110000000000000010000000 '
b10111111110000000000000010000000 N
b10111111110000000000000010000000 ("
b10111111110000000000000010000000 M
b1111 &
b1111 L
b1111 )"
b0 `
b10111111110000000000000010000100 9
b10111111110000000000000010000000 V
1^
1)
#3245
0)
#3255
0%
b0 '
b0 N
b0 ("
b0 M
b0 &
b0 L
b0 )"
0^
b1 `
b0 $
b0 8
b0 ,"
b10000000 -"
1)
#3265
0)
#3275
bx $
bx 8
bx ,"
b10 `
1)
#3285
0)
#3295
b11 `
1)
#3305
0)
#3315
b100 `
1)
#3325
0)
#3335
1%
b10111111110000000000000010000100 '
b10111111110000000000000010000100 N
b10111111110000000000000010000100 ("
b10111111110000000000000010000100 M
b1111 &
b1111 L
b1111 )"
b0 `
b10111111110000000000000010001000 9
b10111111110000000000000010000100 V
1^
1)
#3345
0)
#3355
0%
b0 '
b0 N
b0 ("
b0 M
b0 &
b0 L
b0 )"
b0 $
b0 8
b0 ,"
b10000100 -"
0^
b1 `
1)
#3365
0)
#3375
b10 `
bx $
bx 8
bx ,"
1)
#3385
0)
#3395
b11 `
1)
#3405
0)
#3415
b100 `
1)
#3425
0)
#3435
1%
b10111111110000000000000010001000 '
b10111111110000000000000010001000 N
b10111111110000000000000010001000 ("
b10111111110000000000000010001000 M
b1111 &
b1111 L
b1111 )"
b0 `
b10111111110000000000000010001100 9
b10111111110000000000000010001000 V
1^
1)
#3445
0)
#3455
0%
b0 '
b0 N
b0 ("
b0 M
b0 &
b0 L
b0 )"
0^
b1 `
b0 $
b0 8
b0 ,"
b10001000 -"
1)
#3465
0)
#3475
bx $
bx 8
bx ,"
b10 `
1)
#3485
0)
#3495
b11 `
1)
#3505
0)
#3515
b100 `
1)
#3525
0)
#3535
1%
b10111111110000000000000010001100 '
b10111111110000000000000010001100 N
b10111111110000000000000010001100 ("
b10111111110000000000000010001100 M
b1111 &
b1111 L
b1111 )"
b0 `
b10111111110000000000000010010000 9
b10111111110000000000000010001100 V
1^
1)
#3545
0)
#3555
0%
b0 '
b0 N
b0 ("
b0 M
b0 &
b0 L
b0 )"
b0 $
b0 8
b0 ,"
b10001100 -"
0^
b1 `
1)
#3565
0)
#3575
b10 `
bx $
bx 8
bx ,"
1)
#3585
0)
#3595
b11 `
1)
#3605
0)
#3615
b100 `
1)
#3625
0)
#3635
1%
b10111111110000000000000010010000 '
b10111111110000000000000010010000 N
b10111111110000000000000010010000 ("
b10111111110000000000000010010000 M
b1111 &
b1111 L
b1111 )"
b0 `
b10111111110000000000000010010100 9
b10111111110000000000000010010000 V
1^
1)
#3645
0)
#3655
0%
b0 '
b0 N
b0 ("
b0 M
b0 &
b0 L
b0 )"
0^
b1 `
b0 $
b0 8
b0 ,"
b10010000 -"
1)
#3665
0)
#3675
bx $
bx 8
bx ,"
b10 `
1)
#3685
0)
#3695
b11 `
1)
#3705
0)
#3715
b100 `
1)
#3725
0)
#3735
1%
b10111111110000000000000010010100 '
b10111111110000000000000010010100 N
b10111111110000000000000010010100 ("
b10111111110000000000000010010100 M
b1111 &
b1111 L
b1111 )"
b0 `
b10111111110000000000000010011000 9
b10111111110000000000000010010100 V
1^
1)
#3745
0)
#3755
0%
b0 '
b0 N
b0 ("
b0 M
b0 &
b0 L
b0 )"
b0 $
b0 8
b0 ,"
b10010100 -"
0^
b1 `
1)
#3765
0)
#3775
b10 `
bx $
bx 8
bx ,"
1)
#3785
0)
#3795
b11 `
1)
#3805
0)
#3815
b100 `
1)
#3825
0)
